*************************
Quanti anni hai?41-46    1
71-76    1
59-64    1
77+      1
53-58    1
29-34    1
47-52    1
35-40    1
65-70    1
0-16     1
23-28    1
17-22    1
Name: Quanti anni hai?, dtype: int64*************************
Totale4     2
1     2
31    1
14    1
40    1
3     1
24    1
22    1
16    1
48    1
Name: Totale, dtype: int64